<?xml version="1.0" encoding="utf-8"?>
<!-- Generator: Adobe Illustrator 19.2.0, SVG Export Plug-In . SVG Version: 6.00 Build 0)  -->
<svg version="1.1" id="Layer_1" xmlns="http://www.w3.org/2000/svg" xmlns:xlink="http://www.w3.org/1999/xlink" x="0px" y="0px"
	 viewBox="0 0 406 93" enable-background="new 0 0 406 93" xml:space="preserve">
<g>
	<g>
		<path fill="#FFFFFF" d="M9.942,44.324c-6.445,0-9.155-4.518-9.155-8.975V1.437h7.831v33.431c0,1.867,0.782,2.831,2.771,2.831H14.4
			v6.626H9.942z"/>
		<path fill="#FFFFFF" d="M20.544,7.582V1.195h8.011v6.387H20.544z M20.664,44.324V12.943h7.831v31.382H20.664z"/>
		<path fill="#FFFFFF" d="M49.698,44.685c-6.265,0-14.035-3.373-14.035-16.083c0-12.708,7.77-16.022,14.035-16.022
			c4.336,0,7.589,1.326,10.36,4.218l-5.301,5.3c-1.627-1.747-3.012-2.471-5.059-2.471c-1.868,0-3.314,0.663-4.458,2.049
			c-1.205,1.506-1.747,3.614-1.747,6.926c0,3.314,0.542,5.483,1.747,6.988c1.144,1.384,2.59,2.047,4.458,2.047
			c2.047,0,3.432-0.722,5.059-2.469l5.301,5.239C57.287,43.301,54.034,44.685,49.698,44.685z"/>
		<path fill="#FFFFFF" d="M84.153,44.324V25.169c0-4.155-2.65-5.541-5.12-5.541s-5.06,1.447-5.06,5.541v19.156h-7.831V1.437h7.831
			v14.397c2.108-2.169,4.758-3.253,7.53-3.253c6.866,0,10.481,4.82,10.481,11.446v20.299H84.153z"/>
		<path fill="#FFFFFF" d="M110.235,44.324c-6.385,0-9.095-4.518-9.095-8.975V19.808h-3.313v-5.963h3.313V4.57h7.831v9.275h5.541
			v5.963h-5.541v15.059c0,1.808,0.843,2.831,2.711,2.831h2.83v6.626H110.235z"/>
	</g>
	<g>
		<path fill="#FFFFFF" d="M141.379,44.324v-3.314c-2.108,2.41-5.059,3.675-8.372,3.675c-3.193,0-5.843-0.963-7.65-2.771
			c-2.108-2.047-3.012-4.879-3.012-8.312V14.688h4.337V32.94c0,5.241,2.771,7.89,7.228,7.89c4.458,0,7.409-2.71,7.409-7.89V14.688
			h4.337v29.636H141.379z"/>
		<path fill="#FFFFFF" d="M175.473,44.324V26.073c0-5.239-2.83-7.89-7.288-7.89c-4.457,0-7.348,2.71-7.348,7.89v18.252h-4.337
			V14.688h4.337v3.253c2.108-2.41,4.999-3.614,8.312-3.614c3.192,0,5.783,0.965,7.589,2.771c2.109,2.049,3.073,4.82,3.073,8.253
			v18.973H175.473z"/>
		<path fill="#FFFFFF" d="M208.061,44.324v-3.553c-2.409,3.131-5.181,3.914-8.433,3.914c-3.012,0-5.662-1.024-7.229-2.59
			c-3.012-3.012-3.614-7.949-3.614-12.589c0-4.637,0.602-9.577,3.614-12.589c1.567-1.567,4.217-2.59,7.229-2.59
			c3.252,0,5.963,0.724,8.373,3.794V1.437h4.336v42.888H208.061z M200.593,18.182c-6.445,0-7.47,5.541-7.47,11.324
			s1.025,11.324,7.47,11.324s7.409-5.541,7.409-11.324S207.038,18.182,200.593,18.182z"/>
	</g>
	<g>
		<path fill="#FFFFFF" d="M253.662,44.324h-6.445l-6.566-19.697l-6.565,19.697h-6.445l-9.638-31.382h8.312l5.06,19.395l6.385-19.395
			h5.723l6.445,19.395l5.059-19.395h8.252L253.662,44.324z"/>
		<path fill="#FFFFFF" d="M283.961,44.324v-2.71c-2.109,2.108-4.096,3.012-7.71,3.012c-3.554,0-6.144-0.904-8.011-2.771
			c-1.687-1.747-2.59-4.277-2.59-7.049c0-4.998,3.433-9.094,10.722-9.094h7.408v-1.567c0-3.433-1.686-4.939-5.842-4.939
			c-3.012,0-4.397,0.724-6.024,2.59l-4.999-4.879c3.072-3.373,6.084-4.337,11.324-4.337c8.794,0,13.372,3.735,13.372,11.083v20.662
			H283.961z M269.204,7.821V0.293h6.686v7.528H269.204z M283.78,31.073h-6.204c-2.831,0-4.397,1.326-4.397,3.553
			c0,2.169,1.446,3.614,4.518,3.614c2.169,0,3.554-0.18,4.939-1.506c0.843-0.782,1.144-2.047,1.144-3.975V31.073z M282.515,7.821
			V0.293h6.687v7.528H282.515z"/>
		<path fill="#FFFFFF" d="M317.092,21.496c-1.205-1.206-2.229-1.869-4.156-1.869c-2.41,0-5.06,1.808-5.06,5.783v18.914h-7.831
			V12.943h7.65v3.01c1.505-1.806,4.517-3.373,7.89-3.373c3.072,0,5.24,0.784,7.409,2.951L317.092,21.496z"/>
		<path fill="#FFFFFF" d="M363.954,44.324V25.351c0-4.277-2.711-5.724-5.181-5.724c-2.409,0-5.24,1.447-5.24,5.541v19.156h-7.831
			V25.351c0-4.277-2.71-5.724-5.18-5.724s-5.24,1.447-5.24,5.724v18.973h-7.831V12.943h7.65v2.89
			c2.047-2.108,4.938-3.253,7.83-3.253c3.494,0,6.325,1.265,8.313,3.977c2.65-2.771,5.482-3.977,9.396-3.977
			c3.132,0,5.963,1.024,7.71,2.771c2.53,2.53,3.433,5.483,3.433,8.916v20.058H363.954z"/>
		<path fill="#FFFFFF" d="M386.364,31.073c0,4.035,2.47,6.987,6.866,6.987c3.433,0,5.121-0.963,7.108-2.951l4.759,4.637
			c-3.193,3.192-6.265,4.939-11.927,4.939c-7.409,0-14.516-3.373-14.516-16.083c0-10.24,5.541-16.022,13.673-16.022
			c8.734,0,13.673,6.385,13.673,14.999v3.494H386.364z M397.567,22.339c-0.843-1.869-2.59-3.253-5.24-3.253
			c-2.65,0-4.397,1.384-5.24,3.253c-0.482,1.143-0.663,1.986-0.723,3.373h11.926C398.23,24.326,398.049,23.483,397.567,22.339z"/>
	</g>
	<g>
		<path fill="#FFFFFF" d="M0,92.514V69.631h14.206v2.184H2.443v8.067h10.028v2.186H2.443v8.259h11.763v2.186H0z"/>
		<path fill="#FFFFFF" d="M19.275,92.514V69.631h2.443v20.697h11.698v2.186H19.275z"/>
		<path fill="#FFFFFF" d="M37.684,92.514V69.631H51.89v2.184H40.127v8.067h10.028v2.186H40.127v8.259H51.89v2.186H37.684z"/>
		<path fill="#FFFFFF" d="M71.199,92.514l-6.975-12.181l-4.821,5.785v6.396H56.96V69.631h2.443v13.146l10.67-13.146h2.989
			l-7.199,8.838l8.228,14.046H71.199z"/>
		<path fill="#FFFFFF" d="M84.56,71.816v20.699h-2.443V71.816h-6.621v-2.184h15.685v2.184H84.56z"/>
		<path fill="#FFFFFF" d="M108.592,92.514l-5.207-10.155H97.89v10.155h-2.443V69.631h8.775c3.985,0,6.782,2.41,6.782,6.363
			c0,3.343-2.026,5.528-4.982,6.139l5.432,10.381H108.592z M103.996,71.816H97.89v8.389h6.106c2.668,0,4.564-1.38,4.564-4.177
			S106.664,71.816,103.996,71.816z"/>
		<path fill="#FFFFFF" d="M129.507,90.328c-1.542,1.543-3.568,2.379-5.849,2.379c-2.282,0-4.307-0.835-5.849-2.379
			c-2.154-2.153-2.154-4.402-2.154-9.255s0-7.102,2.154-9.257c1.542-1.541,3.567-2.377,5.849-2.377c2.281,0,4.307,0.835,5.849,2.377
			c2.153,2.155,2.153,4.404,2.153,9.257S131.66,88.175,129.507,90.328z M127.611,73.263c-0.996-1.027-2.442-1.639-3.953-1.639
			c-1.511,0-2.957,0.612-3.953,1.639c-1.446,1.478-1.607,3.022-1.607,7.81c0,4.788,0.161,6.332,1.607,7.81
			c0.996,1.027,2.442,1.639,3.953,1.639c1.511,0,2.957-0.612,3.953-1.639c1.446-1.478,1.607-3.022,1.607-7.81
			C129.217,76.284,129.057,74.741,127.611,73.263z"/>
		<path fill="#FFFFFF" d="M144.122,71.816v20.699h-2.443V71.816h-6.621v-2.184h15.685v2.184H144.122z"/>
		<path fill="#FFFFFF" d="M155.01,92.514V69.631h14.206v2.184h-11.763v8.067h10.028v2.186h-10.028v8.259h11.763v2.186H155.01z"/>
		<path fill="#FFFFFF" d="M181.42,92.707c-2.25,0-4.307-0.835-5.849-2.379c-2.154-2.153-2.154-4.402-2.154-9.255
			s0-7.102,2.154-9.257c1.542-1.541,3.599-2.377,5.849-2.377c4.114,0,7.167,2.506,7.939,6.812h-2.507
			c-0.611-2.796-2.572-4.628-5.432-4.628c-1.511,0-2.957,0.578-3.953,1.608c-1.446,1.478-1.607,3.053-1.607,7.841
			c0,4.788,0.161,6.363,1.607,7.841c0.996,1.029,2.442,1.608,3.953,1.608c2.86,0,4.885-1.831,5.496-4.628h2.442
			C188.62,90.201,185.502,92.707,181.42,92.707z"/>
		<path fill="#FFFFFF" d="M208.056,92.514V82.069h-10.863v10.445h-2.443V69.631h2.443v10.251h10.863V69.631h2.442v22.883H208.056z"
			/>
		<path fill="#FFFFFF" d="M231.702,92.514l-12.148-18.352v18.352h-2.443V69.631h2.315l12.148,18.287V69.631h2.442v22.883H231.702z"
			/>
		<path fill="#FFFFFF" d="M240.626,92.514V69.631h2.443v22.883H240.626z"/>
		<path fill="#FFFFFF" d="M263.924,92.514l-6.975-12.181l-4.821,5.785v6.396h-2.443V69.631h2.443v13.146l10.67-13.146h2.989
			l-7.199,8.838l8.228,14.046H263.924z"/>
	</g>
</g>
</svg>
