<?xml version="1.0" encoding="utf-8"?>
<!-- Generator: Adobe Illustrator 19.2.0, SVG Export Plug-In . SVG Version: 6.00 Build 0)  -->
<svg version="1.1" id="Layer_1" xmlns="http://www.w3.org/2000/svg" xmlns:xlink="http://www.w3.org/1999/xlink" x="0px" y="0px"
	 viewBox="0 0 53 98" enable-background="new 0 0 53 98" xml:space="preserve">
<polyline fill="none" stroke="#111111" stroke-width="6" stroke-miterlimit="10" points="2.5,95 48.5,49 2.5,3 "/>
</svg>
